…
#> Processing CPIH annual rates
#> Processing CPIH monthly rates
#> Processing RPI average prices
#> Processing CPIH contributions to annual rate
#> Processing CPIH contributions to monthly change in rate
#> Processing monthly change in annual rate
#> Processing RPI 12 month change
#> Processing CPIH Weights
#> • `` -> `...1`
#> • `` -> `...2`
#> • `` -> `...3`
#> • `` -> `...4`
#> • `` -> `...5`
#> • `` -> `...6`
#> # A tibble: 4,053 × 9
#>    cdid  title           category level pre_unit unit  release_date next_release
#>    <chr> <chr>           <chr>    <dbl> <chr>    <chr> <chr>        <chr>       
#>  1 A9ER  CPI wts: Non-e… <NA>        NA <NA>     Part… 19-04-2023   24 May 2023 
#>  2 A9ES  CPI wts: Durab… <NA>        NA <NA>     Part… 19-04-2023   24 May 2023 
#>  3 A9ET  CPI wts: Semi-… <NA>        NA <NA>     Part… 19-04-2023   24 May 2023 
#>  4 A9EU  CPI wts: Non-d… <NA>        NA <NA>     Part… 19-04-2023   24 May 2023 
#>  5 A9EV  CPI wts: Non-s… <NA>        NA <NA>     Part… 19-04-2023   24 May 2023 
#>  6 A9EW  CPI wts: Food,… <NA>        NA <NA>     Part… 19-04-2023   24 May 2023 
#>  7 A9EX  CPI wts: Proce… <NA>        NA <NA>     Part… 19-04-2023   24 May 2023 
#>  8 A9EY  CPI wts: Unpro… <NA>        NA <NA>     Part… 19-04-2023   24 May 2023 
#>  9 A9EZ  CPI wts: Seaso… <NA>        NA <NA>     Part… 19-04-2023   24 May 2023 
#> 10 A9F2  CPI wts: Indus… <NA>        NA <NA>     Part… 19-04-2023   24 May 2023 
#> # ℹ 4,043 more rows
#> # ℹ 1 more variable: important_notes <chr>
```
…
